module playground

go 1.17

require (
	github.com/google/go-cmp v0.5.6
	github.com/gookit/color v1.5.0
	github.com/stretchr/testify v1.7.0
)

require (
	github.com/davecgh/go-spew v1.1.0 // indirect
	github.com/pmezard/go-difflib v1.0.0 // indirect
	github.com/xo/terminfo v0.0.0-20210125001918-ca9a967f8778 // indirect
	golang.org/x/sys v0.0.0-20210330210617-4fbd30eecc44 // indirect
	gopkg.in/yaml.v3 v3.0.0-20200313102051-9f266ea9e77c // indirect
)
